E:\GIT\New folder\Messaging\src\main\java\com\wavelabs\dao\UserDao.java
E:\GIT\New folder\Messaging\src\main\java\com\wavelabs\resource\MessageController.java
E:\GIT\New folder\Messaging\src\main\java\com\wavelabs\entity\Modules.java
E:\GIT\New folder\Messaging\src\main\java\com\wavelabs\services\MessageService.java
E:\GIT\New folder\Messaging\src\main\java\com\wavelabs\IDNFilter.java
E:\GIT\New folder\Messaging\src\main\java\com\wavelabs\entity\MessageThread.java
E:\GIT\New folder\Messaging\src\main\java\com\wavelabs\entity\UserTokenInfo.java
E:\GIT\New folder\Messaging\src\main\java\com\wavelabs\utils\Constants.java
E:\GIT\New folder\Messaging\src\main\java\com\wavelabs\entity\Message.java
E:\GIT\New folder\Messaging\src\main\java\com\wavelabs\services\UserTypeChecker.java
E:\GIT\New folder\Messaging\src\main\java\com\wavelabs\repos\MessageThreadRepo.java
E:\GIT\New folder\Messaging\src\main\java\com\wavelabs\utils\TimedLRUCacheMBean.java
E:\GIT\New folder\Messaging\src\main\java\com\wavelabs\entity\Alert.java
E:\GIT\New folder\Messaging\src\main\java\com\wavelabs\services\UserService.java
E:\GIT\New folder\Messaging\src\main\java\com\wavelabs\models\enums\AlertType.java
E:\GIT\New folder\Messaging\src\main\java\com\wavelabs\services\AlertService.java
E:\GIT\New folder\Messaging\src\main\java\com\wavelabs\entity\AlertMetadata.java
E:\GIT\New folder\Messaging\src\main\java\com\wavelabs\resource\UserController.java
E:\GIT\New folder\Messaging\src\main\java\com\wavelabs\models\enums\Status.java
E:\GIT\New folder\Messaging\src\main\java\com\wavelabs\repos\UserRepo.java
E:\GIT\New folder\Messaging\src\main\java\com\wavelabs\services\PersistUser.java
E:\GIT\New folder\Messaging\src\main\java\com\wavelabs\repos\AlertRepo.java
E:\GIT\New folder\Messaging\src\main\java\com\wavelabs\utils\SynchronizedLRUCacheMap.java
E:\GIT\New folder\Messaging\src\main\java\com\wavelabs\utils\TimedLRUCache.java
E:\GIT\New folder\Messaging\src\main\java\com\wavelabs\repos\AlertMetadataRepo.java
E:\GIT\New folder\Messaging\src\main\java\com\wavelabs\resource\AlertController.java
E:\GIT\New folder\Messaging\src\main\java\com\wavelabs\MessagingAndAlertsApplication.java
E:\GIT\New folder\Messaging\src\main\java\com\wavelabs\repos\MessageRepo.java
E:\GIT\New folder\Messaging\src\main\java\com\wavelabs\AuthenticationTokenCache.java
E:\GIT\New folder\Messaging\src\main\java\com\wavelabs\entity\Member.java
E:\GIT\New folder\Messaging\src\main\java\com\wavelabs\entity\User.java
E:\GIT\New folder\Messaging\src\main\java\com\wavelabs\utils\ReadPropertiesFile.java
